{
  "type": "mysql",
  "host": "localhost",
  "port": 3306,
  "username": "root",
  "password": "dHfu123!",
  "database": "job_test",
  "entities": ["dist/**/*.entity{.ts,.js}"],
  "synchronize": true
}